{
   "github_grimoirelab_170908_enriched_170908b" : {
      "aliases" : {
         "github_issues" : {
            "filter" : {
               "terms" : {
                  "origin" : [
                     "https://github.com/rust-lang/rfcs",
                     "https://github.com/rust-lang/rust",
                     "https://github.com/aframevr/aframe",
                     "https://github.com/servo/servo",
                     "https://github.com/servo/servo",
                     "https://github.com/xiph/rav1e",
                     "https://github.com/xiph/daala",
                     "https://github.com/tdaede/image-compare"
                  ]
               }
            }
         },
         "github_issues_enrich" : {},
         "issues_closed" : {
            "filter" : {
               "terms" : {
                  "origin" : [
                     "https://github.com/rust-lang/rfcs",
                     "https://github.com/rust-lang/rust"
                  ]
               },
               "issues_created" : {},
               "issues_updated" : {}
            }
         }
   }
  }
}